…
```
## [1] 0.6269353
```

```r
df_joined %>% 
          select (date,steps_p_day_sum,steps_p_day_mean,steps_p_day_med) %>% 
           distinct (date,steps_p_day_sum,steps_p_day_mean,steps_p_day_med)
```

```
## # A tibble: 61 x 4
## # Groups:   date [61]
##    date       steps_p_day_sum steps_p_day_mean steps_p_day_med
##    <chr>                <dbl>            <dbl>           <dbl>
##  1 2012-10-01          10766.           37.4              34.1
##  2 2012-10-02            126             0.438             0  
##  3 2012-10-03          11352            39.4               0  
##  4 2012-10-04          12116            42.1               0  
##  5 2012-10-05          13294            46.2               0  
##  6 2012-10-06          15420            53.5               0  
##  7 2012-10-07          11015            38.2               0  
##  8 2012-10-08          10766.           37.4              34.1
##  9 2012-10-09          12811            44.5               0  
## 10 2012-10-10           9900            34.4               0  
## # ... with 51 more rows
```
…
